Relatório
…
## Warning in rosnerTest(unlist(dados[, col1]), k = 1, warn = FALSE): 70223
## observations with NA/NaN/Inf in 'x' removed.

## Warning in rosnerTest(unlist(dados[, col1]), k = 1, warn = FALSE): 70223
## observations with NA/NaN/Inf in 'x' removed.

## Warning in rosnerTest(unlist(dados[, col1]), k = 1, warn = FALSE): 70223
## observations with NA/NaN/Inf in 'x' removed.

## Warning in rosnerTest(unlist(dados[, col1]), k = 1, warn = FALSE): 17677
## observations with NA/NaN/Inf in 'x' removed.

rst_quant

## # A tibble: 22 × 3
##    atr                      min   max
##    <chr>                  <dbl> <dbl>
##  1 TP_FAIXA_ETARIA            1    15
##  2 TP_ESTADO_CIVIL            0     3
##  3 TP_COR_RACA                0     4
##  4 TP_NACIONALIDADE           1     2
##  5 TP_ST_CONCLUSAO            1     3
##  6 TP_ANO_CONCLUIU            0    14
##  7 TP_ESCOLA                  1     3
##  8 TP_ENSINO                  1     1
##  9 TP_DEPENDENCIA_ADM_ESC     1     4
## 10 TP_SIT_FUNC_ESC            1     1
## # … with 12 more rows

rslt_out_grub_rosner

## # A tibble: 22 × 5
##    atr                          grubb_p grubb_v              rosner_v rosner_out
##    <chr>                          <dbl> <chr>                   <dbl> <lgl>     
##  1 TP_FAIXA_ETARIA        1             highest value 20 is…       20 FALSE     
##  2 TP_ESTADO_CIVIL        0.00000000671 highest value 4 is …        4 TRUE      
##  3 TP_COR_RACA            1             highest value 5 is …        5 FALSE     
##  4 TP_NACIONALIDADE       0             highest value 4 is …        4 TRUE      
##  5 TP_ST_CONCLUSAO        1             highest value 4 is …        4 FALSE     
##  6 TP_ANO_CONCLUIU        1             highest value 14 is…       14 FALSE     
##  7 TP_ESCOLA              1             highest value 3 is …        3 FALSE     
##  8 TP_ENSINO              0             highest value 2 is …        2 TRUE      
##  9 TP_DEPENDENCIA_ADM_ESC 1             highest value 4 is …        4 FALSE     
## 10 TP_SIT_FUNC_ESC        0             highest value 4 is …        4 TRUE      
## # … with 12 more rows
…
